<svg width="56" height="62" viewBox="0 0 56 62" fill="none" xmlns="http://www.w3.org/2000/svg">
<path d="M48.0561 6.71424H46.1883V4.67803C46.1883 2.09916 44.1521 0 41.6463 0C39.1389 0 37.1044 2.09916 37.1044 4.67803V6.71424H32.4434V4.67803C32.4434 2.09916 30.4072 0 27.9014 0C25.3957 0 23.3595 2.09916 23.3595 4.67803V6.71424H18.6985V4.67803C18.6985 2.09916 16.6623 0 14.1566 0C11.6508 0 9.61462 2.09916 9.61462 4.67803V6.71424H7.22968C3.244 6.71424 0 9.95824 0 13.9439V54.7703C0 58.756 3.244 62 7.22968 62H48.0561C52.0435 62 55.2858 58.756 55.2858 54.7703V13.9439C55.2858 9.95824 52.0401 6.71424 48.0561 6.71424ZM39.656 4.67803C39.656 3.50597 40.5474 2.55165 41.6463 2.55165C42.7435 2.55165 43.6366 3.50597 43.6366 4.67803V13.0049C43.6366 14.177 42.7435 15.1313 41.6463 15.1313C40.5474 15.1313 39.656 14.177 39.656 13.0049V4.67803ZM25.9112 4.67803C25.9112 3.50597 26.8042 2.55165 27.9014 2.55165C28.9987 2.55165 29.8917 3.50597 29.8917 4.67803V13.0049C29.8917 14.177 28.9987 15.1313 27.9014 15.1313C26.8042 15.1313 25.9112 14.177 25.9112 13.0049V4.67803V4.67803ZM12.1646 4.67803C12.1646 3.50597 13.0576 2.55165 14.1549 2.55165C15.2521 2.55165 16.1451 3.50597 16.1451 4.67803V13.0049C16.1451 14.177 15.2521 15.1313 14.1549 15.1313C13.0576 15.1313 12.1646 14.177 12.1646 13.0049V4.67803ZM51.033 54.7703C51.033 56.4119 49.6976 57.7473 48.0561 57.7473H7.22968C5.58811 57.7473 4.25275 56.4119 4.25275 54.7703V24.1505H51.033V54.7703Z" fill="#079992"/>
<g clip-path="url(#clip0)">
<path d="M25.6455 51.505C25.3753 51.7808 24.9082 51.8018 24.6073 51.5517L13.2341 42.0965C12.9332 41.8465 12.9201 41.4257 13.2047 41.1614L16.8283 37.7981C17.113 37.5338 17.592 37.5223 17.8929 37.7723L24.1056 42.937C24.4065 43.1871 24.8737 43.166 25.1438 42.8903L37.2813 30.5027C37.5514 30.227 38.0295 30.1955 38.3432 30.4329L42.3385 33.4534C42.6525 33.6907 42.6883 34.1106 42.418 34.3863L25.6455 51.505Z" fill="#079992"/>
</g>
<defs>
<clipPath id="clip0">
<rect width="29.6" height="26" fill="white" transform="translate(13 28)"/>
</clipPath>
</defs>
</svg>
