<svg width="62" height="62" viewBox="0 0 62 62" fill="none" xmlns="http://www.w3.org/2000/svg">
<g clip-path="url(#clip0)">
<path d="M31 25.0217C36.8184 25.0217 41.5352 20.305 41.5352 14.4866C41.5352 8.66817 36.8184 3.95142 31 3.95142C25.1816 3.95142 20.4648 8.66817 20.4648 14.4866C20.4648 20.305 25.1816 25.0217 31 25.0217Z" fill="#079992"/>
<path d="M52.3125 25.0216C55.9908 25.0216 58.9727 22.0398 58.9727 18.3615C58.9727 14.6831 55.9908 11.7013 52.3125 11.7013C48.6342 11.7013 45.6523 14.6831 45.6523 18.3615C45.6523 22.0398 48.6342 25.0216 52.3125 25.0216Z" fill="#079992"/>
<path d="M9.6875 25.0216C13.3658 25.0216 16.3477 22.0398 16.3477 18.3615C16.3477 14.6831 13.3658 11.7013 9.6875 11.7013C6.0092 11.7013 3.02734 14.6831 3.02734 18.3615C3.02734 22.0398 6.0092 25.0216 9.6875 25.0216Z" fill="#079992"/>
<path d="M16.2496 31.0026C13.6279 28.8546 11.2536 29.1389 8.22227 29.1389C3.68852 29.1389 0 32.8056 0 37.3115V50.5362C0 52.4931 1.59723 54.0842 3.56137 54.0842C12.0411 54.0842 11.0195 54.2377 11.0195 53.7185C11.0195 44.3476 9.90959 37.4754 16.2496 31.0026Z" fill="#079992"/>
<path d="M33.8832 29.1872C28.5885 28.7456 23.9864 29.1923 20.0168 32.4689C13.3739 37.7897 14.6523 44.954 14.6523 53.7184C14.6523 56.0372 16.539 57.9591 18.893 57.9591C44.4537 57.9591 45.4711 58.7836 46.9868 55.427C47.4839 54.2919 47.3476 54.6526 47.3476 43.7936C47.3476 35.1685 39.8794 29.1872 33.8832 29.1872Z" fill="#079992"/>
<path d="M53.7777 29.1388C50.7298 29.1388 48.3686 28.8574 45.7504 31.0024C52.0431 37.4272 50.9805 43.8305 50.9805 53.7184C50.9805 54.2408 50.1324 54.0841 58.3115 54.0841C60.3459 54.0841 62 52.436 62 50.4101V37.3114C62 32.8055 58.3115 29.1388 53.7777 29.1388Z" fill="#079992"/>
</g>
<defs>
<clipPath id="clip0">
<rect width="62" height="62" fill="white"/>
</clipPath>
</defs>
</svg>
